{
    "total": 385,
    "page": 0,
    "total_pages": 10,
    "per_page": 0,
    "request_id": "",
    "hits": [
        {
            "title": "Result 1",
            "description": "Cheesecake lemon drops tart macaroon jujubes pie. Bear claw tart lollipop oat cake marshmallow jujubes chocolate bar carrot cake. Candy  canes gummies dragée jelly beans chocolate cake...",
            "owner": {
                "name": "Administrator",
                "username": "reginald",
                "url": "http://profiles.kcommons.org/reginald"
            },
            "thumbnail_url": "https://placehold.co/200x75/000000/FFF",
            "publication_date": "2023-11-21",
            "language": "en",
            "content_type": "site"
        },
        {
            "title": "Result 2",
            "description": "Cheesecake lemon drops tart macaroon jujubes pie. Bear claw tart lollipop oat cake marshmallow jujubes chocolate bar carrot cake. Candy  canes gummies dragée jelly beans chocolate cake...",
            "language": "en",
            "content_type": "group"
        },
        {
            "title": "Result 3",
            "description": "Cheesecake lemon drops tart macaroon jujubes pie. Bear claw tart lollipop oat cake marshmallow jujubes chocolate bar carrot cake. Candy  canes gummies dragée jelly beans chocolate cake...",
            "language": "en",
            "content_type": "profile"
        },
        {
            "title": "Deposit 1",
            "description": "Cheesecake lemon drops tart macaroon jujubes pie. Bear claw tart lollipop oat cake marshmallow jujubes chocolate bar carrot cake. Candy  canes gummies dragée jelly beans chocolate cake...",
            "owner": {
                "name": "Author",
                "url": ""
            },
            "publication_date": "2023-11-21",
            "language": "en",
            "content_type": "deposit"
        },
        {
            "title": "On Open Scholarship",
            "description": "An essay on the nature of open scholarship and the role of the library in supporting it.",
            "owner": {
                "name": "Reginald Gibbons",
                "username": "reginald",
                "url": "http://profiles.kcommons.org/reginald"
            },
            "contributors": [
                {
                    "name": "Reginald Gibbons",
                    "username": "reginald",
                    "url": "http://profiles.kcommons.org/reginald",
                    "role": "first author",
                    "network_node": "mla"
                },
                {
                    "name": "Edwina Gibbons",
                    "username": "edwina",
                    "url": "http://profiles.kcommons.org/edwina",
                    "role": "author",
                    "network_node": "hc"
                },
                {
                    "name": "Obadiah Gibbons",
                    "username": "obadiah"
                },
                {
                    "name": "Lila Gibbons",
                    "username": "lila"
                }
            ],
            "primary_url": "http://works.kcommons.org/records/1234",
            "other_urls": [
                "http://works.hcommons.org/records/1234",
                "http://works.mla.kcommons.org/records/1234",
                "http://works.hastac.kcommons.org/records/1234"
            ],
            "thumbnail_url": "https://placehold.co/75x200/000000/FFF",
            "content": "This is the content of the essay. It is a long essay, and it is very interesting. It is also very well-written and well-argued and well-researched and well-documented and well-cited",
            "publication_date": "2018-01-01",
            "modified_date": "2018-01-02",
            "language": "en",
            "content_type": "deposit",
            "network_node": "works"
        }
    ]
}
